<?xml version="1.0" encoding="utf-8"?>
<!-- Generator: Adobe Illustrator 21.0.2, SVG Export Plug-In . SVG Version: 6.00 Build 0)  -->
<svg version="1.1" id="Layer_1" xmlns="http://www.w3.org/2000/svg" xmlns:xlink="http://www.w3.org/1999/xlink" x="0px" y="0px"
	 viewBox="0 0 752 157" style="enable-background:new 0 0 752 157;" xml:space="preserve">
<style type="text/css">
	.st0{fill:#E24329;}
</style>
<title>Artboard</title>
<desc>Created with Sketch.</desc>
<g>
	<path class="st0" d="M7.636,67c-3.866,0-7,3.134-7,7s3.134,7,7,7c3.866,0,7-3.134,7-7S11.502,67,7.636,67z M7.636,79
		c-2.761,0-5-2.239-5-5s2.239-5,5-5s5,2.239,5,5S10.397,79,7.636,79z"/>
	<path class="st0" d="M744.364,67c-3.866,0-7,3.134-7,7s3.134,7,7,7s7-3.134,7-7S748.23,67,744.364,67z M744.364,79
		c-2.761,0-5-2.239-5-5s2.239-5,5-5s5,2.239,5,5S747.125,79,744.364,79z"/>
	<polygon class="st0" points="8.636,30 317.5,30 317.5,28 6.636,28 6.636,67 7.636,67 8.636,67 	"/>
	<polygon class="st0" points="745.364,28 434.5,28 434.5,30 743.364,30 743.364,67 744.364,67 745.364,67 	"/>
	<path class="st0" d="M406.66,32h-62.31c-3.774,0-6.844,3.108-6.844,6.928v8.143c0,3.821,3.07,6.929,6.844,6.929h10.257
		c0.464,2.279,2.484,4,4.899,4c2.757,0,5-2.243,5-5s-2.243-5-5-5c-2.406,0-4.418,1.708-4.893,3.975H344.35
		c-2.672,0-4.844-2.2-4.844-4.904v-8.143c0-2.704,2.172-4.903,4.844-4.903h62.31c2.672,0,4.844,2.199,4.844,4.903v8.143
		c0,2.704-2.172,4.904-4.844,4.904h-34.31c-0.552,0-1,0.453-1,1.013c0,0.559,0.448,1.012,1,1.012h34.31
		c3.774,0,6.844-3.108,6.844-6.929v-8.143C413.504,35.108,410.434,32,406.66,32z M359.5,50c1.654,0,3,1.346,3,3s-1.346,3-3,3
		s-3-1.346-3-3S357.846,50,359.5,50z"/>
	<path class="st0" d="M397.5,47.994c2.757,0,5-2.243,5-5c0-2.757-2.243-5-5-5V38c-2.414,0-4.433,1.719-4.898,3.997h-43.11
		c-0.548,0-0.991,0.448-0.991,1c0,0.555,0.443,1,0.991,1h43.11C393.067,46.275,395.086,47.994,397.5,47.994z M397.5,40
		c1.654,0,3,1.346,3,3s-1.346,3-3,3s-3-1.346-3-3S395.846,40,397.5,40z"/>
	<path class="st0" d="M344.344,26h62.31c3.775,0,6.845-3.108,6.845-6.929v-8.142c0-3.821-3.07-6.929-6.845-6.929H372.4
		c-0.464-2.28-2.484-4-4.898-4c-2.758,0-5,2.243-5,5s2.242,5,5,5c2.405,0,4.418-1.709,4.892-3.975h34.26
		c2.672,0,4.845,2.2,4.845,4.904v8.142c0,2.704-2.173,4.904-4.845,4.904h-62.31c-2.672,0-4.845-2.2-4.845-4.904v-8.142
		c0-2.704,2.173-4.904,4.845-4.904h11.353c0.553,0,1-0.453,1-1.013c0-0.559-0.447-1.012-1-1.012h-11.353
		c-3.775,0-6.845,3.108-6.845,6.929v8.142C337.499,22.892,340.569,26,344.344,26z M367.5,8c-1.654,0-3-1.346-3-3s1.346-3,3-3
		s3,1.346,3,3S369.154,8,367.5,8z"/>
	<path class="st0" d="M348.501,14.997c0,0.555,0.443,1,0.991,1h43.11c0.465,2.278,2.484,3.997,4.898,3.997c2.757,0,5-2.243,5-5
		c0-2.757-2.243-5-5-5V10c-2.414,0-4.433,1.719-4.898,3.997h-43.11C348.944,13.997,348.501,14.445,348.501,14.997z M397.5,12
		c1.654,0,3,1.346,3,3s-1.346,3-3,3s-3-1.346-3-3S395.846,12,397.5,12z"/>
	<path class="st0" d="M688.383,131.909c0.039,0,0.072-0.018,0.11-0.022c0.413,1.769,1.994,3.094,3.887,3.094c2.206,0,4-1.794,4-4
		s-1.794-4-4-4c-1.843,0-3.383,1.259-3.845,2.958c-0.052-0.008-0.098-0.031-0.152-0.031h-9.52c-1.919,0-3.48-1.669-3.48-3.72V97.628
		c0-2.051,1.562-3.72,3.48-3.72h5.779l-1.311,1.311c-0.391,0.39-0.391,1.023,0,1.414c0.195,0.195,0.451,0.293,0.707,0.293
		s0.512-0.098,0.707-0.293l2.974-2.973c0.188-0.188,0.293-0.442,0.293-0.707s-0.105-0.52-0.293-0.707l-2.974-2.973
		c-0.391-0.391-1.023-0.391-1.414,0s-0.391,1.024,0,1.414l1.221,1.221h-5.689c-3.021,0-5.48,2.566-5.48,5.72v28.561
		c0,3.154,2.459,5.72,5.48,5.72H688.383z M692.38,128.981c1.103,0,2,0.897,2,2s-0.897,2-2,2s-2-0.897-2-2
		S691.277,128.981,692.38,128.981z"/>
	<path class="st0" d="M715.385,125.856v-28.19c0-3.174-2.602-5.757-5.8-5.757h-9.367c-0.472-1.683-2.003-2.928-3.836-2.928
		c-2.206,0-4,1.794-4,4s1.794,4,4,4c1.885,0,3.459-1.314,3.88-3.072h9.323c2.095,0,3.8,1.686,3.8,3.757v28.19
		c0,2.234-1.603,4.053-3.571,4.053h-5.801l1.167-1.167c0.391-0.391,0.391-1.023,0-1.414s-1.023-0.391-1.414,0l-2.973,2.973
		c-0.391,0.391-0.391,1.023,0,1.414l2.973,2.974c0.195,0.195,0.451,0.293,0.707,0.293s0.512-0.098,0.707-0.293
		c0.391-0.391,0.391-1.023,0-1.414l-1.365-1.365h5.998C712.886,131.909,715.385,129.194,715.385,125.856z M696.382,94.981
		c-1.103,0-2-0.897-2-2s0.897-2,2-2s2,0.897,2,2S697.484,94.981,696.382,94.981z"/>
	<path class="st0" d="M707.384,113.469c0-0.552-0.447-1-1-1h-5.914l-2.928-8.68c-0.134-0.396-0.5-0.667-0.918-0.68
		c-0.429-0.025-0.799,0.236-0.956,0.624l-5.569,13.753l-2.755-4.537c-0.181-0.299-0.505-0.481-0.854-0.481h-4.105
		c-0.553,0-1,0.448-1,1s0.447,1,1,1h3.543l3.497,5.759c0.182,0.3,0.507,0.481,0.854,0.481c0.026,0,0.054-0.001,0.08-0.003
		c0.377-0.03,0.705-0.271,0.847-0.621l5.305-13.1l2.295,6.804c0.137,0.406,0.519,0.68,0.947,0.68h6.632
		C706.936,114.469,707.384,114.021,707.384,113.469z"/>
	<path class="st0" d="M279.983,103.023h-32c-0.553,0-1,0.448-1,1s0.447,1,1,1h32c0.553,0,1-0.448,1-1
		S280.536,103.023,279.983,103.023z"/>
	<path class="st0" d="M277.983,110.023c-1.806,0-3.317,1.21-3.813,2.855h-5.374c-0.496-1.646-2.008-2.855-3.813-2.855
		s-3.317,1.21-3.813,2.855h-5.374c-0.496-1.646-2.008-2.855-3.813-2.855c-2.206,0-4,1.794-4,4s1.794,4,4,4
		c1.912,0,3.509-1.35,3.903-3.145h5.194c0.393,1.795,1.991,3.145,3.903,3.145s3.509-1.35,3.903-3.145h5.194
		c0.393,1.795,1.991,3.145,3.903,3.145c2.206,0,4-1.794,4-4S280.189,110.023,277.983,110.023z M251.983,116.023
		c-1.103,0-2-0.897-2-2s0.897-2,2-2s2,0.897,2,2S253.086,116.023,251.983,116.023z M264.983,116.023c-1.103,0-2-0.897-2-2
		c0-0.029,0.007-0.057,0.009-0.086c0.001-0.021,0.012-0.038,0.012-0.059c0-0.007-0.004-0.013-0.004-0.019
		c0.085-1.025,0.937-1.836,1.983-1.836c1.103,0,2,0.897,2,2S266.086,116.023,264.983,116.023z M277.983,116.023
		c-1.103,0-2-0.897-2-2s0.897-2,2-2s2,0.897,2,2S279.086,116.023,277.983,116.023z"/>
	<path class="st0" d="M277.983,122.023c-1.809,0-3.323,1.214-3.816,2.865h-5.368c-0.493-1.651-2.007-2.865-3.816-2.865
		c-1.859,0-3.411,1.28-3.858,3h-5.284c-0.447-1.72-1.999-3-3.858-3c-2.206,0-4,1.794-4,4s1.794,4,4,4c1.859,0,3.411-1.28,3.858-3
		h5.284c0.447,1.72,1.999,3,3.858,3c1.908,0,3.503-1.345,3.9-3.135h5.2c0.397,1.79,1.992,3.135,3.9,3.135c2.206,0,4-1.794,4-4
		S280.189,122.023,277.983,122.023z M251.983,128.023c-1.103,0-2-0.897-2-2s0.897-2,2-2s2,0.897,2,2
		S253.086,128.023,251.983,128.023z M264.983,128.023c-1.103,0-2-0.897-2-2s0.897-2,2-2s2,0.897,2,2
		S266.086,128.023,264.983,128.023z M277.983,128.023c-1.103,0-2-0.897-2-2s0.897-2,2-2s2,0.897,2,2
		S279.086,128.023,277.983,128.023z"/>
	<path class="st0" d="M284.622,93.022h-8.639c-0.553,0-1,0.448-1,1s0.447,1,1,1h8.639c0.751,0,1.361,0.6,1.361,1.336v36.329
		c0,0.736-0.61,1.336-1.361,1.336h-39.277c-0.751,0-1.361-0.6-1.361-1.336V96.358c0-0.737,0.61-1.336,1.361-1.336h15.78
		c0.447,1.721,1.999,3.001,3.858,3.001c2.206,0,4-1.794,4-4s-1.794-4-4-4c-1.858,0-3.41,1.279-3.858,2.999h-15.781
		c-1.854,0-3.361,1.497-3.361,3.336v36.329c0,1.84,1.508,3.336,3.361,3.336h39.277c1.854,0,3.361-1.496,3.361-3.336V96.358
		C287.983,94.519,286.475,93.022,284.622,93.022z M262.992,93.932c0.049-1.06,0.919-1.909,1.991-1.909c1.103,0,2,0.897,2,2
		s-0.897,2-2,2c-1.072,0-1.943-0.85-1.991-1.91c0.003-0.031,0.018-0.058,0.018-0.091C263.01,93.99,262.995,93.963,262.992,93.932z"
		/>
	<path class="st0" d="M104.069,113.429c0-0.087-0.034-0.164-0.101-0.23l-4.681-4.681c-0.067-0.067-0.144-0.101-0.231-0.101
		c-0.087,0-0.164,0.033-0.231,0.101l-0.502,0.502c-0.067,0.067-0.101,0.145-0.101,0.231s0.034,0.164,0.101,0.23l3.948,3.947
		l-3.948,3.948c-0.067,0.066-0.101,0.144-0.101,0.23s0.034,0.164,0.101,0.231l0.502,0.502c0.067,0.067,0.144,0.101,0.231,0.101
		c0.087,0,0.164-0.033,0.231-0.101l4.681-4.681C104.036,113.594,104.069,113.517,104.069,113.429z"/>
	<path class="st0" d="M104.591,108.518c-0.067-0.067-0.144-0.101-0.231-0.101c-0.087,0-0.164,0.033-0.231,0.101l-0.502,0.502
		c-0.067,0.067-0.101,0.145-0.101,0.231s0.034,0.164,0.101,0.23l3.948,3.947l-3.948,3.948c-0.067,0.066-0.101,0.144-0.101,0.23
		s0.034,0.164,0.101,0.231l0.502,0.502c0.067,0.067,0.144,0.101,0.231,0.101c0.087,0,0.164-0.033,0.231-0.101l4.681-4.681
		c0.067-0.066,0.101-0.144,0.101-0.231c0-0.087-0.034-0.164-0.101-0.23L104.591,108.518z"/>
	<path class="st0" d="M211.419,113.429c0-0.087-0.034-0.164-0.101-0.23l-4.681-4.681c-0.067-0.067-0.144-0.101-0.231-0.101
		c-0.087,0-0.164,0.033-0.231,0.101l-0.502,0.502c-0.067,0.067-0.101,0.145-0.101,0.231s0.034,0.164,0.101,0.23l3.948,3.947
		l-3.948,3.948c-0.067,0.066-0.101,0.144-0.101,0.23s0.034,0.164,0.101,0.231l0.502,0.502c0.067,0.067,0.144,0.101,0.231,0.101
		c0.087,0,0.164-0.033,0.231-0.101l4.681-4.681C211.385,113.594,211.419,113.517,211.419,113.429z"/>
	<path class="st0" d="M211.941,108.518c-0.067-0.067-0.144-0.101-0.231-0.101c-0.087,0-0.164,0.033-0.231,0.101l-0.502,0.502
		c-0.067,0.067-0.101,0.145-0.101,0.231s0.034,0.164,0.101,0.23l3.948,3.947l-3.948,3.948c-0.067,0.066-0.101,0.144-0.101,0.23
		s0.034,0.164,0.101,0.231l0.502,0.502c0.067,0.067,0.144,0.101,0.231,0.101c0.087,0,0.164-0.033,0.231-0.101l4.681-4.681
		c0.067-0.066,0.101-0.144,0.101-0.231c0-0.087-0.034-0.164-0.101-0.23L211.941,108.518z"/>
	<path class="st0" d="M318.769,113.429c0-0.087-0.034-0.164-0.101-0.23l-4.681-4.681c-0.067-0.067-0.144-0.101-0.231-0.101
		c-0.087,0-0.164,0.033-0.231,0.101l-0.502,0.502c-0.067,0.067-0.101,0.145-0.101,0.231s0.034,0.164,0.101,0.23l3.948,3.947
		l-3.948,3.948c-0.067,0.066-0.101,0.144-0.101,0.23s0.034,0.164,0.101,0.231l0.502,0.502c0.067,0.067,0.144,0.101,0.231,0.101
		c0.087,0,0.164-0.033,0.231-0.101l4.681-4.681C318.735,113.594,318.769,113.517,318.769,113.429z"/>
	<path class="st0" d="M319.291,108.518c-0.067-0.067-0.144-0.101-0.231-0.101c-0.087,0-0.164,0.033-0.231,0.101l-0.502,0.502
		c-0.067,0.067-0.101,0.145-0.101,0.231s0.034,0.164,0.101,0.23l3.948,3.947l-3.948,3.948c-0.067,0.066-0.101,0.144-0.101,0.23
		s0.034,0.164,0.101,0.231l0.502,0.502c0.067,0.067,0.144,0.101,0.231,0.101c0.087,0,0.164-0.033,0.231-0.101l4.681-4.681
		c0.067-0.066,0.101-0.144,0.101-0.231c0-0.087-0.034-0.164-0.101-0.23L319.291,108.518z"/>
	<path class="st0" d="M426.118,113.429c0-0.087-0.034-0.164-0.101-0.23l-4.681-4.681c-0.067-0.067-0.145-0.101-0.231-0.101
		s-0.164,0.033-0.23,0.101l-0.503,0.502c-0.066,0.067-0.101,0.145-0.101,0.231s0.034,0.164,0.101,0.23l3.948,3.947l-3.948,3.948
		c-0.066,0.066-0.101,0.144-0.101,0.23s0.034,0.164,0.101,0.231l0.503,0.502c0.066,0.067,0.144,0.101,0.23,0.101
		s0.164-0.033,0.231-0.101l4.681-4.681C426.084,113.594,426.118,113.517,426.118,113.429z"/>
	<path class="st0" d="M426.64,108.518c-0.066-0.067-0.144-0.101-0.23-0.101c-0.088,0-0.164,0.033-0.231,0.101l-0.502,0.502
		c-0.067,0.067-0.101,0.145-0.101,0.231s0.033,0.164,0.101,0.23l3.947,3.947l-3.947,3.948c-0.067,0.066-0.101,0.144-0.101,0.23
		s0.033,0.164,0.101,0.231l0.502,0.502c0.067,0.067,0.144,0.101,0.231,0.101c0.087,0,0.164-0.033,0.23-0.101l4.681-4.681
		c0.067-0.066,0.101-0.144,0.101-0.231c0-0.087-0.033-0.164-0.101-0.23L426.64,108.518z"/>
	<path class="st0" d="M533.468,113.429c0-0.087-0.034-0.164-0.101-0.23l-4.681-4.681c-0.067-0.067-0.145-0.101-0.231-0.101
		s-0.164,0.033-0.23,0.101l-0.503,0.502c-0.066,0.067-0.101,0.145-0.101,0.231s0.034,0.164,0.101,0.23l3.948,3.947l-3.948,3.948
		c-0.066,0.066-0.101,0.144-0.101,0.23s0.034,0.164,0.101,0.231l0.503,0.502c0.066,0.067,0.144,0.101,0.23,0.101
		s0.164-0.033,0.231-0.101l4.681-4.681C533.434,113.594,533.468,113.517,533.468,113.429z"/>
	<path class="st0" d="M533.989,108.518c-0.066-0.067-0.144-0.101-0.23-0.101c-0.088,0-0.164,0.033-0.231,0.101l-0.502,0.502
		c-0.067,0.067-0.101,0.145-0.101,0.231s0.033,0.164,0.101,0.23l3.947,3.947l-3.947,3.948c-0.067,0.066-0.101,0.144-0.101,0.23
		s0.033,0.164,0.101,0.231l0.502,0.502c0.067,0.067,0.144,0.101,0.231,0.101c0.087,0,0.164-0.033,0.23-0.101l4.681-4.681
		c0.067-0.066,0.101-0.144,0.101-0.231c0-0.087-0.033-0.164-0.101-0.23L533.989,108.518z"/>
	<path class="st0" d="M640.817,113.429c0-0.087-0.034-0.164-0.101-0.23l-4.681-4.681c-0.067-0.067-0.145-0.101-0.231-0.101
		s-0.164,0.033-0.23,0.101l-0.503,0.502c-0.066,0.067-0.101,0.145-0.101,0.231s0.034,0.164,0.101,0.23l3.948,3.947l-3.948,3.948
		c-0.066,0.066-0.101,0.144-0.101,0.23s0.034,0.164,0.101,0.231l0.503,0.502c0.066,0.067,0.144,0.101,0.23,0.101
		s0.164-0.033,0.231-0.101l4.681-4.681C640.783,113.594,640.817,113.517,640.817,113.429z"/>
	<path class="st0" d="M641.339,108.518c-0.066-0.067-0.144-0.101-0.23-0.101c-0.088,0-0.164,0.033-0.231,0.101l-0.502,0.502
		c-0.067,0.067-0.101,0.145-0.101,0.231s0.033,0.164,0.101,0.23l3.947,3.947l-3.947,3.948c-0.067,0.066-0.101,0.144-0.101,0.23
		s0.033,0.164,0.101,0.231l0.502,0.502c0.067,0.067,0.144,0.101,0.231,0.101c0.087,0,0.164-0.033,0.23-0.101l4.681-4.681
		c0.067-0.066,0.101-0.144,0.101-0.231c0-0.087-0.033-0.164-0.101-0.23L641.339,108.518z"/>
	<path class="st0" d="M46.281,118.58c0-2.206-1.794-4-3.999-4c-0.385,0-0.751,0.072-1.104,0.174
		c-0.17-0.367-0.327-0.742-0.456-1.128c-0.331-1.024-0.499-2.088-0.499-3.161c0-1.358,0.26-2.671,0.788-3.935
		c0.506-1.212,1.267-2.345,2.199-3.274c0.97-0.964,2.083-1.709,3.316-2.217c2.444-1.024,5.312-1.032,7.796,0.002
		c1.226,0.505,2.34,1.251,3.309,2.212c1.923,1.929,2.981,4.489,2.981,7.213c0.001,1.074-0.167,2.141-0.499,3.167
		c-0.328,1.009-0.818,1.965-1.457,2.84c-1.242,1.7-2.226,2.789-3.021,3.669l-0.366,0.404c-1.202,1.32-1.993,2.188-2.27,4.033h-6.011
		c-0.553,0-1,0.447-1,1s0.447,1,1,1h6.917c0.532,0,0.972-0.417,0.999-0.948c0.094-1.816,0.569-2.34,1.843-3.738l0.377-0.416
		c0.821-0.909,1.844-2.04,3.147-3.824c0.764-1.047,1.351-2.191,1.744-3.403c0.397-1.228,0.598-2.501,0.597-3.784
		c0-3.256-1.267-6.318-3.569-8.628c-1.158-1.149-2.489-2.039-3.955-2.644c-2.971-1.236-6.405-1.227-9.329-0.002
		c-1.472,0.606-2.803,1.497-3.96,2.647c-1.117,1.114-2.028,2.47-2.648,3.956c-0.615,1.475-0.928,3.046-0.928,4.67
		c0,1.282,0.2,2.553,0.599,3.783c0.173,0.522,0.391,1.023,0.627,1.513c-0.719,0.724-1.165,1.719-1.165,2.818
		c0,2.206,1.794,4,3.998,4C44.487,122.58,46.281,120.786,46.281,118.58z M40.284,118.58c0-1.103,0.896-2,1.998-2
		c1.103,0,1.999,0.897,1.999,2s-0.896,2-1.999,2C41.18,120.58,40.284,119.682,40.284,118.58z"/>
	<path class="st0" d="M52.284,134.58c0-0.553-0.447-1-1-1h-2c-0.553,0-1,0.447-1,1s0.447,1,1,1h2
		C51.837,135.58,52.284,135.133,52.284,134.58z"/>
	<path class="st0" d="M48.284,130.58c-0.553,0-1,0.447-1,1s0.447,1,1,1h4c0.553,0,1-0.447,1-1s-0.447-1-1-1H48.284z"/>
	<path class="st0" d="M54.284,128.58c0-0.553-0.447-1-1-1h-6c-0.553,0-1,0.447-1,1s0.447,1,1,1h6
		C53.837,129.58,54.284,129.133,54.284,128.58z"/>
	<path class="st0" d="M49.284,90.58v4c0,0.553,0.447,1,1,1s1-0.447,1-1v-4c0-0.553-0.447-1-1-1S49.284,90.027,49.284,90.58z"/>
	<path class="st0" d="M38.698,98.994c0.256,0,0.512-0.098,0.707-0.293c0.391-0.391,0.391-1.023,0-1.414l-2.828-2.828
		c-0.391-0.391-1.023-0.391-1.414,0s-0.391,1.023,0,1.414l2.828,2.828C38.186,98.896,38.442,98.994,38.698,98.994z"/>
	<path class="st0" d="M33.284,108.58h-4c-0.553,0-1,0.447-1,1s0.447,1,1,1h4c0.553,0,1-0.447,1-1S33.837,108.58,33.284,108.58z"/>
	<path class="st0" d="M62.991,94.459l-2.828,2.828c-0.391,0.391-0.391,1.023,0,1.414c0.195,0.195,0.451,0.293,0.707,0.293
		s0.512-0.098,0.707-0.293l2.828-2.828c0.391-0.391,0.391-1.023,0-1.414S63.382,94.068,62.991,94.459z"/>
	<path class="st0" d="M71.284,108.58h-4c-0.553,0-1,0.447-1,1s0.447,1,1,1h4c0.553,0,1-0.447,1-1S71.837,108.58,71.284,108.58z"/>
	<rect x="37.33" y="147.676" class="st0" width="1.624" height="9.156"/>
	<path class="st0" d="M43.635,147.676h-2.45v9.156h2.534c0.681,0,1.291-0.098,1.827-0.294s0.994-0.487,1.372-0.875
		s0.667-0.87,0.868-1.449c0.2-0.578,0.301-1.246,0.301-2.002c0-1.512-0.392-2.646-1.176-3.402
		C46.127,148.054,45.035,147.676,43.635,147.676z M45.672,154.711c-0.5,0.537-1.216,0.805-2.149,0.805h-0.714v-6.523h0.714
		c0.924,0,1.638,0.257,2.142,0.77c0.504,0.514,0.756,1.33,0.756,2.45C46.421,153.342,46.171,154.175,45.672,154.711z"/>
	<polygon class="st0" points="51.481,152.758 54.771,152.758 54.771,151.386 51.481,151.386 51.481,149.048 55.373,149.048 
		55.373,147.676 49.857,147.676 49.857,156.832 55.513,156.832 55.513,155.46 51.481,155.46 	"/>
	<path class="st0" d="M59.51,147.676l-2.982,9.156h1.652l0.714-2.478h3.08l0.714,2.478h1.708l-2.982-9.156H59.51z M59.271,153.08
		l0.322-1.12c0.149-0.485,0.289-0.982,0.42-1.491c0.13-0.509,0.261-1.02,0.392-1.533h0.056c0.131,0.505,0.264,1.014,0.399,1.526
		c0.135,0.514,0.277,1.013,0.427,1.498l0.322,1.12H59.271z"/>
	<path class="st0" d="M139.491,147.676h-2.45v9.156h2.534c0.681,0,1.291-0.098,1.827-0.294s0.994-0.487,1.372-0.875
		s0.667-0.87,0.868-1.449c0.2-0.578,0.301-1.246,0.301-2.002c0-1.512-0.392-2.646-1.176-3.402
		C141.983,148.054,140.892,147.676,139.491,147.676z M141.528,154.711c-0.5,0.537-1.216,0.805-2.149,0.805h-0.714v-6.523h0.714
		c0.924,0,1.638,0.257,2.142,0.77c0.504,0.514,0.756,1.33,0.756,2.45C142.277,153.342,142.027,154.175,141.528,154.711z"/>
	<polygon class="st0" points="147.337,152.758 150.627,152.758 150.627,151.386 147.337,151.386 147.337,149.048 151.229,149.048 
		151.229,147.676 145.713,147.676 145.713,156.832 151.369,156.832 151.369,155.46 147.337,155.46 	"/>
	<polygon class="st0" points="153.071,156.832 154.695,156.832 154.695,153.01 158.027,153.01 158.027,151.638 154.695,151.638 
		154.695,149.048 158.601,149.048 158.601,147.676 153.071,147.676 	"/>
	<rect x="160.07" y="147.676" class="st0" width="1.624" height="9.156"/>
	<path class="st0" d="M169.231,151.652c0,0.513,0.026,1.043,0.077,1.589s0.096,1.057,0.133,1.533h-0.056l-0.938-1.946l-2.856-5.152
		h-1.666v9.156h1.554v-4.004c0-0.514-0.025-1.036-0.077-1.568c-0.052-0.531-0.096-1.04-0.133-1.525h0.056l0.938,1.945l2.856,5.152
		h1.666v-9.156h-1.554V151.652z"/>
	<polygon class="st0" points="174.641,152.758 177.931,152.758 177.931,151.386 174.641,151.386 174.641,149.048 178.533,149.048 
		178.533,147.676 173.017,147.676 173.017,156.832 178.673,156.832 178.673,155.46 174.641,155.46 	"/>
	<path class="st0" d="M142.633,129.938c0-1.861-1.283-3.416-3.007-3.86v-4.251c1.724-0.445,3.007-1.999,3.007-3.86
		s-1.283-3.416-3.007-3.86v-4.251c1.724-0.445,3.007-1.999,3.007-3.86s-1.283-3.416-3.007-3.86v-4.251
		c1.724-0.445,3.007-1.999,3.007-3.86c0-2.206-1.794-4-4-4s-4,1.794-4,4c0,1.856,1.276,3.406,2.993,3.856v4.26
		c-1.717,0.45-2.993,2-2.993,3.856s1.276,3.406,2.993,3.856v4.26c-1.717,0.45-2.993,2-2.993,3.856s1.276,3.406,2.993,3.856v4.26
		c-1.717,0.45-2.993,2-2.993,3.856c0,2.206,1.794,4,4,4S142.633,132.144,142.633,129.938z M136.633,94.023c0-1.103,0.897-2,2-2
		s2,0.897,2,2c0,1.088-0.874,1.972-1.956,1.996c-0.018-0.001-0.033-0.01-0.051-0.01c-0.016,0-0.03,0.008-0.046,0.009
		C137.503,95.989,136.633,95.107,136.633,94.023z M136.633,105.995c0-1.103,0.897-2,2-2s2,0.897,2,2
		c0,1.088-0.874,1.972-1.956,1.996c-0.018-0.001-0.033-0.01-0.051-0.01c-0.016,0-0.03,0.008-0.046,0.009
		C137.503,107.96,136.633,107.079,136.633,105.995z M136.633,117.966c0-1.103,0.897-2,2-2s2,0.897,2,2
		c0,1.088-0.874,1.972-1.956,1.996c-0.018-0.001-0.033-0.01-0.051-0.01c-0.016,0-0.03,0.008-0.046,0.009
		C137.503,119.932,136.633,119.051,136.633,117.966z M136.633,129.938c0-1.103,0.897-2,2-2s2,0.897,2,2s-0.897,2-2,2
		S136.633,131.041,136.633,129.938z"/>
	<path class="st0" d="M179.633,90.856h-32c-0.553,0-1,0.447-1,1s0.447,1,1,1h32c0.553,0,1-0.447,1-1S180.186,90.856,179.633,90.856z
		"/>
	<path class="st0" d="M147.633,96.856h20c0.553,0,1-0.447,1-1s-0.447-1-1-1h-20c-0.553,0-1,0.447-1,1S147.081,96.856,147.633,96.856
		z"/>
	<path class="st0" d="M179.633,102.856h-32c-0.553,0-1,0.447-1,1s0.447,1,1,1h32c0.553,0,1-0.447,1-1
		S180.186,102.856,179.633,102.856z"/>
	<path class="st0" d="M147.633,108.856h20c0.553,0,1-0.447,1-1s-0.447-1-1-1h-20c-0.553,0-1,0.447-1,1
		S147.081,108.856,147.633,108.856z"/>
	<path class="st0" d="M179.605,114.856h-32c-0.553,0-1,0.447-1,1s0.447,1,1,1h32c0.553,0,1-0.447,1-1
		S180.158,114.856,179.605,114.856z"/>
	<path class="st0" d="M147.633,120.856h20c0.553,0,1-0.447,1-1s-0.447-1-1-1h-20c-0.553,0-1,0.447-1,1
		S147.081,120.856,147.633,120.856z"/>
	<path class="st0" d="M179.605,126.856h-32c-0.553,0-1,0.447-1,1s0.447,1,1,1h32c0.553,0,1-0.447,1-1
		S180.158,126.856,179.605,126.856z"/>
	<path class="st0" d="M167.605,132.856c0.553,0,1-0.447,1-1s-0.447-1-1-1h-20c-0.553,0-1,0.447-1,1s0.447,1,1,1H167.605z"/>
	<path class="st0" d="M255.374,148.292c-0.308-0.224-0.674-0.383-1.099-0.476c-0.425-0.094-0.889-0.141-1.393-0.141h-3.08v9.156
		h1.624v-3.36h1.456c0.495,0,0.954-0.058,1.379-0.175c0.424-0.116,0.793-0.299,1.106-0.546c0.312-0.247,0.558-0.558,0.735-0.931
		s0.266-0.812,0.266-1.316c0-0.532-0.089-0.978-0.266-1.337S255.682,148.516,255.374,148.292z M252.756,152.17h-1.33v-3.191h1.33
		c0.672,0,1.176,0.109,1.512,0.328c0.336,0.22,0.504,0.619,0.504,1.197C254.772,151.615,254.1,152.17,252.756,152.17z"/>
	<polygon class="st0" points="259.522,147.676 257.898,147.676 257.898,156.832 263.331,156.832 263.331,155.46 259.522,155.46 	"/>
	<path class="st0" d="M267.188,147.676l-2.982,9.156h1.652l0.714-2.478h3.08l0.714,2.478h1.708l-2.982-9.156H267.188z
		 M266.949,153.08l0.322-1.12c0.149-0.485,0.289-0.982,0.42-1.491c0.13-0.509,0.261-1.02,0.392-1.533h0.056
		c0.131,0.505,0.264,1.014,0.399,1.526c0.135,0.514,0.277,1.013,0.427,1.498l0.322,1.12H266.949z"/>
	<path class="st0" d="M278.609,151.652c0,0.513,0.026,1.043,0.077,1.589s0.096,1.057,0.133,1.533h-0.056l-0.938-1.946l-2.856-5.152
		h-1.666v9.156h1.554v-4.004c0-0.514-0.025-1.036-0.077-1.568c-0.052-0.531-0.096-1.04-0.133-1.525h0.056l0.938,1.945l2.856,5.152
		h1.666v-9.156h-1.554V151.652z"/>
	<path class="st0" d="M363.517,94.981h-9.185c-1.654,0-3,1.301-3,2.9v34.199c0,1.6,1.346,2.9,3,2.9h36c1.654,0,3-1.301,3-2.9V97.881
		c0-1.6-1.346-2.9-3-2.9h-5.08c-0.488-3.386-3.401-6-6.92-6c-3.859,0-7,3.141-7,7s3.141,7,7,7c3.519,0,6.432-2.614,6.92-6h5.08
		c0.552,0,1,0.404,1,0.9v34.199c0,0.496-0.448,0.9-1,0.9h-36c-0.552,0-1-0.404-1-0.9V97.881c0-0.496,0.448-0.9,1-0.9h9.185
		c0.553,0,1-0.447,1-1S364.07,94.981,363.517,94.981z M378.333,100.981c-2.757,0-5-2.243-5-5s2.243-5,5-5s5,2.243,5,5
		S381.089,100.981,378.333,100.981z"/>
	<path class="st0" d="M362.851,124.327c0.195,0.195,0.451,0.293,0.707,0.293s0.512-0.098,0.707-0.293l8.165-8.165
		c0.391-0.391,0.391-1.023,0-1.414l-8.165-8.166c-0.391-0.391-1.023-0.391-1.414,0s-0.391,1.023,0,1.414l7.458,7.459l-7.458,7.458
		C362.46,123.304,362.46,123.937,362.851,124.327z"/>
	<path class="st0" d="M381.107,124.981c0.553,0,1-0.447,1-1s-0.447-1-1-1h-6c-0.553,0-1,0.447-1,1s0.447,1,1,1H381.107z"/>
	<path class="st0" d="M355.128,155.348c-0.303,0.159-0.66,0.238-1.071,0.238c-0.775,0-1.389-0.296-1.841-0.889
		s-0.679-1.412-0.679-2.457c0-0.514,0.063-0.976,0.189-1.386c0.126-0.411,0.303-0.759,0.532-1.044
		c0.229-0.284,0.499-0.504,0.812-0.657c0.313-0.154,0.661-0.231,1.043-0.231c0.354,0,0.665,0.068,0.931,0.203
		c0.266,0.136,0.516,0.32,0.749,0.553l0.91-1.008c-0.29-0.308-0.656-0.578-1.099-0.812s-0.945-0.351-1.505-0.351
		c-0.588,0-1.139,0.107-1.652,0.322c-0.514,0.215-0.961,0.527-1.344,0.938c-0.383,0.411-0.684,0.913-0.903,1.506
		c-0.22,0.593-0.329,1.262-0.329,2.009c0,0.756,0.107,1.428,0.322,2.016s0.509,1.083,0.882,1.484
		c0.373,0.401,0.812,0.705,1.316,0.91s1.05,0.308,1.638,0.308c0.578,0,1.106-0.114,1.582-0.343c0.476-0.229,0.901-0.558,1.274-0.987
		l-0.91-0.994C355.714,154.966,355.431,155.189,355.128,155.348z"/>
	<path class="st0" d="M364.269,152.086c0.331-0.429,0.497-0.994,0.497-1.694c0-0.513-0.086-0.942-0.259-1.287
		c-0.173-0.346-0.408-0.623-0.707-0.833c-0.299-0.211-0.653-0.362-1.064-0.455c-0.411-0.094-0.854-0.141-1.33-0.141h-3.094v9.156
		h1.624v-3.584h1.4l1.974,3.584h1.82l-2.184-3.822C363.496,152.823,363.937,152.516,364.269,152.086z M361.237,151.96h-1.302v-2.981
		h1.302c0.625,0,1.104,0.103,1.435,0.308c0.331,0.205,0.497,0.574,0.497,1.105c0,0.523-0.166,0.915-0.497,1.177
		C362.341,151.829,361.863,151.96,361.237,151.96z"/>
	<polygon class="st0" points="368.242,152.758 371.532,152.758 371.532,151.386 368.242,151.386 368.242,149.048 372.134,149.048 
		372.134,147.676 366.618,147.676 366.618,156.832 372.273,156.832 372.273,155.46 368.242,155.46 	"/>
	<path class="st0" d="M376.271,147.676l-2.982,9.156h1.652l0.714-2.478h3.08l0.714,2.478h1.708l-2.982-9.156H376.271z
		 M376.032,153.08l0.322-1.12c0.148-0.485,0.289-0.982,0.42-1.491c0.13-0.509,0.261-1.02,0.392-1.533h0.056
		c0.131,0.505,0.264,1.014,0.399,1.526c0.136,0.514,0.277,1.013,0.427,1.498l0.322,1.12H376.032z"/>
	<polygon class="st0" points="380.76,149.048 383.406,149.048 383.406,156.832 385.03,156.832 385.03,149.048 387.676,149.048 
		387.676,147.676 380.76,147.676 	"/>
	<polygon class="st0" points="390.733,152.758 394.023,152.758 394.023,151.386 390.733,151.386 390.733,149.048 394.626,149.048 
		394.626,147.676 389.109,147.676 389.109,156.832 394.766,156.832 394.766,155.46 390.733,155.46 	"/>
	<path class="st0" d="M463.586,152.086c0.331-0.429,0.497-0.994,0.497-1.694c0-0.513-0.086-0.942-0.259-1.287
		c-0.173-0.346-0.408-0.623-0.707-0.833c-0.299-0.211-0.653-0.362-1.064-0.455c-0.41-0.094-0.854-0.141-1.33-0.141h-3.094v9.156
		h1.624v-3.584h1.4l1.974,3.584h1.82l-2.185-3.822C462.813,152.823,463.255,152.516,463.586,152.086z M460.555,151.96h-1.302v-2.981
		h1.302c0.626,0,1.104,0.103,1.436,0.308c0.331,0.205,0.497,0.574,0.497,1.105c0,0.523-0.166,0.915-0.497,1.177
		C461.658,151.829,461.181,151.96,460.555,151.96z"/>
	<polygon class="st0" points="467.56,152.758 470.85,152.758 470.85,151.386 467.56,151.386 467.56,149.048 471.451,149.048 
		471.451,147.676 465.936,147.676 465.936,156.832 471.591,156.832 471.591,155.46 467.56,155.46 	"/>
	<path class="st0" d="M477.198,152.282c-0.14,0.522-0.269,1.018-0.385,1.483c-0.117,0.467-0.255,0.967-0.413,1.498h-0.056
		c-0.159-0.531-0.297-1.031-0.413-1.498c-0.117-0.466-0.25-0.961-0.399-1.483l-1.288-4.606h-1.722l2.855,9.156h1.918l2.843-9.156
		h-1.666L477.198,152.282z"/>
	<rect x="481.354" y="147.676" class="st0" width="1.624" height="9.156"/>
	<polygon class="st0" points="486.834,152.758 490.124,152.758 490.124,151.386 486.834,151.386 486.834,149.048 490.727,149.048 
		490.727,147.676 485.21,147.676 485.21,156.832 490.866,156.832 490.866,155.46 486.834,155.46 	"/>
	<path class="st0" d="M500.28,152.296c-0.075,0.485-0.147,0.971-0.217,1.456c-0.07,0.485-0.143,0.976-0.218,1.47h-0.056
		c-0.103-0.494-0.205-0.986-0.308-1.477c-0.104-0.49-0.206-0.973-0.309-1.449l-1.12-4.62h-1.414l-1.12,4.62
		c-0.103,0.485-0.202,0.973-0.301,1.463c-0.098,0.49-0.198,0.979-0.301,1.463h-0.056c-0.075-0.484-0.149-0.971-0.225-1.456
		c-0.074-0.484-0.149-0.975-0.224-1.47l-0.798-4.62h-1.666l1.819,9.156h1.975l1.105-4.816c0.075-0.354,0.147-0.707,0.218-1.057
		c0.069-0.35,0.138-0.702,0.202-1.057h0.057c0.056,0.354,0.119,0.707,0.188,1.057c0.07,0.35,0.143,0.702,0.218,1.057l1.134,4.816
		h2.016l1.75-9.156h-1.554L500.28,152.296z"/>
	<path class="st0" d="M567.344,152.086c0.331-0.429,0.497-0.994,0.497-1.694c0-0.513-0.086-0.942-0.259-1.287
		c-0.173-0.346-0.408-0.623-0.707-0.833c-0.299-0.211-0.653-0.362-1.064-0.455c-0.41-0.094-0.854-0.141-1.33-0.141h-3.094v9.156
		h1.624v-3.584h1.4l1.974,3.584h1.82l-2.185-3.822C566.571,152.823,567.013,152.516,567.344,152.086z M564.312,151.96h-1.302v-2.981
		h1.302c0.626,0,1.104,0.103,1.436,0.308c0.331,0.205,0.497,0.574,0.497,1.105c0,0.523-0.166,0.915-0.497,1.177
		C565.416,151.829,564.938,151.96,564.312,151.96z"/>
	<polygon class="st0" points="571.317,152.758 574.607,152.758 574.607,151.386 571.317,151.386 571.317,149.048 575.209,149.048 
		575.209,147.676 569.693,147.676 569.693,156.832 575.349,156.832 575.349,155.46 571.317,155.46 	"/>
	<polygon class="st0" points="578.676,147.676 577.052,147.676 577.052,156.832 582.483,156.832 582.483,155.46 578.676,155.46 	"/>
	<polygon class="st0" points="585.576,152.758 588.866,152.758 588.866,151.386 585.576,151.386 585.576,149.048 589.468,149.048 
		589.468,147.676 583.952,147.676 583.952,156.832 589.607,156.832 589.607,155.46 585.576,155.46 	"/>
	<path class="st0" d="M593.604,147.676l-2.981,9.156h1.651l0.714-2.478h3.08l0.714,2.478h1.708l-2.981-9.156H593.604z
		 M593.366,153.08l0.322-1.12c0.149-0.485,0.289-0.982,0.42-1.491s0.262-1.02,0.393-1.533h0.056
		c0.131,0.505,0.264,1.014,0.399,1.526c0.135,0.514,0.277,1.013,0.427,1.498l0.322,1.12H593.366z"/>
	<path class="st0" d="M605.323,152.716c-0.164-0.195-0.357-0.368-0.581-0.518c-0.225-0.149-0.472-0.28-0.742-0.393l-1.246-0.518
		c-0.187-0.074-0.369-0.151-0.546-0.231c-0.178-0.079-0.334-0.168-0.469-0.266c-0.136-0.098-0.243-0.21-0.322-0.336
		s-0.119-0.277-0.119-0.455c0-0.336,0.131-0.6,0.392-0.791c0.262-0.191,0.611-0.287,1.051-0.287c0.392,0,0.746,0.07,1.063,0.21
		c0.317,0.141,0.625,0.332,0.924,0.574l0.826-1.036c-0.354-0.354-0.779-0.637-1.273-0.847c-0.495-0.21-1.009-0.315-1.54-0.315
		c-0.448,0-0.861,0.065-1.239,0.196s-0.702,0.312-0.973,0.546c-0.271,0.233-0.483,0.507-0.638,0.819
		c-0.153,0.312-0.23,0.65-0.23,1.015c0,0.336,0.054,0.635,0.161,0.896c0.106,0.261,0.249,0.489,0.427,0.686
		c0.177,0.196,0.375,0.364,0.595,0.504s0.441,0.257,0.665,0.351l1.26,0.546c0.205,0.084,0.395,0.168,0.567,0.252
		s0.322,0.175,0.448,0.272c0.126,0.099,0.224,0.213,0.294,0.343c0.069,0.131,0.104,0.29,0.104,0.477c0,0.354-0.135,0.64-0.405,0.854
		c-0.271,0.215-0.668,0.322-1.19,0.322c-0.42,0-0.84-0.096-1.26-0.287s-0.794-0.44-1.12-0.749l-0.952,1.106
		c0.438,0.429,0.945,0.761,1.519,0.994c0.574,0.232,1.17,0.35,1.785,0.35c0.514,0,0.974-0.072,1.379-0.217
		c0.406-0.145,0.752-0.341,1.036-0.588c0.285-0.247,0.502-0.534,0.651-0.861c0.149-0.326,0.224-0.677,0.224-1.05
		c0-0.336-0.047-0.633-0.14-0.889C605.614,153.139,605.486,152.912,605.323,152.716z"/>
	<polygon class="st0" points="609.092,152.758 612.382,152.758 612.382,151.386 609.092,151.386 609.092,149.048 612.983,149.048 
		612.983,147.676 607.468,147.676 607.468,156.832 613.123,156.832 613.123,155.46 609.092,155.46 	"/>
	<path class="st0" d="M473.84,108.667c-0.276-0.479-0.89-0.645-1.366-0.364l-6.586,3.812c-0.309,0.179-0.499,0.509-0.499,0.865
		s0.19,0.687,0.499,0.865l6.586,3.812c0.158,0.092,0.33,0.135,0.5,0.135c0.346,0,0.681-0.179,0.866-0.499
		c0.277-0.478,0.113-1.09-0.364-1.366l-5.091-2.947l5.091-2.947C473.953,109.757,474.118,109.145,473.84,108.667z"/>
	<path class="st0" d="M485.524,117.294c0.186,0.32,0.521,0.499,0.866,0.499c0.17,0,0.343-0.043,0.5-0.135l6.586-3.812
		c0.309-0.179,0.499-0.509,0.499-0.865s-0.19-0.687-0.499-0.865l-6.586-3.812c-0.481-0.28-1.09-0.114-1.366,0.364
		c-0.277,0.478-0.113,1.09,0.364,1.366l5.091,2.947l-5.091,2.947C485.411,116.204,485.246,116.816,485.524,117.294z"/>
	<path class="st0" d="M481.679,104.012l-5.887,17.293c-0.179,0.522,0.102,1.091,0.624,1.269c0.106,0.037,0.216,0.054,0.322,0.054
		c0.416,0,0.805-0.262,0.946-0.678l5.887-17.293c0.179-0.522-0.102-1.091-0.624-1.269
		C482.425,103.205,481.858,103.489,481.679,104.012z"/>
	<path class="st0" d="M499.707,102.803c-0.512,0.207-0.759,0.79-0.552,1.302c1.013,2.503,1.526,5.152,1.526,7.876
		c0,11.579-9.421,21-21,21s-21-9.421-21-21s9.421-21,21-21c4.253,0,8.303,1.265,11.788,3.639c-0.504,0.682-0.788,1.497-0.788,2.361
		c0,1.068,0.416,2.073,1.172,2.828c0.755,0.756,1.76,1.172,2.828,1.172s2.073-0.416,2.828-1.172c0.756-0.755,1.172-1.76,1.172-2.828
		s-0.416-2.073-1.172-2.828c-1.145-1.146-2.936-1.419-4.394-0.827c-3.931-2.836-8.562-4.345-13.434-4.345c-12.683,0-23,10.317-23,23
		s10.317,23,23,23s23-10.317,23-23c0-2.981-0.562-5.884-1.673-8.626C500.802,102.842,500.22,102.595,499.707,102.803z
		 M493.268,95.566c0.378-0.378,0.88-0.586,1.414-0.586s1.036,0.208,1.414,0.586s0.586,0.88,0.586,1.414s-0.208,1.036-0.586,1.414
		c-0.756,0.756-2.072,0.756-2.828,0c-0.378-0.378-0.586-0.88-0.586-1.414S492.89,95.944,493.268,95.566z"/>
	<path class="st0" d="M670.897,152.184l-0.588,1.736h-0.056l-0.603-1.736L668,147.676h-1.792v9.156h1.498v-4.186
		c0-0.215-0.008-0.448-0.021-0.7s-0.033-0.507-0.056-0.764c-0.023-0.256-0.047-0.508-0.07-0.756
		c-0.023-0.247-0.044-0.478-0.062-0.692h0.056l0.728,2.086l1.582,4.158h0.756l1.582-4.158l0.742-2.086h0.057
		c-0.02,0.215-0.042,0.445-0.07,0.692c-0.028,0.248-0.052,0.5-0.07,0.756c-0.019,0.257-0.035,0.512-0.049,0.764
		s-0.021,0.485-0.021,0.7v4.186h1.525v-9.156h-1.792L670.897,152.184z"/>
	<polygon class="st0" points="678.174,152.758 681.464,152.758 681.464,151.386 678.174,151.386 678.174,149.048 682.065,149.048 
		682.065,147.676 676.55,147.676 676.55,156.832 682.205,156.832 682.205,155.46 678.174,155.46 	"/>
	<path class="st0" d="M686.202,147.676l-2.981,9.156h1.651l0.714-2.478h3.08l0.714,2.478h1.708l-2.981-9.156H686.202z
		 M685.964,153.08l0.322-1.12c0.149-0.485,0.289-0.982,0.42-1.491s0.262-1.02,0.393-1.533h0.056
		c0.131,0.505,0.264,1.014,0.399,1.526c0.135,0.514,0.277,1.013,0.427,1.498l0.322,1.12H685.964z"/>
	<path class="st0" d="M697.92,152.716c-0.163-0.195-0.356-0.368-0.581-0.518c-0.224-0.149-0.471-0.28-0.742-0.393l-1.245-0.518
		c-0.188-0.074-0.369-0.151-0.547-0.231c-0.177-0.079-0.333-0.168-0.469-0.266c-0.135-0.098-0.242-0.21-0.322-0.336
		c-0.079-0.126-0.118-0.277-0.118-0.455c0-0.336,0.13-0.6,0.392-0.791c0.261-0.191,0.611-0.287,1.05-0.287
		c0.393,0,0.747,0.07,1.064,0.21c0.317,0.141,0.625,0.332,0.924,0.574l0.826-1.036c-0.355-0.354-0.779-0.637-1.274-0.847
		s-1.008-0.315-1.54-0.315c-0.448,0-0.86,0.065-1.239,0.196c-0.378,0.131-0.702,0.312-0.973,0.546s-0.482,0.507-0.637,0.819
		s-0.231,0.65-0.231,1.015c0,0.336,0.054,0.635,0.161,0.896c0.107,0.261,0.25,0.489,0.427,0.686
		c0.178,0.196,0.376,0.364,0.596,0.504c0.219,0.14,0.44,0.257,0.665,0.351l1.26,0.546c0.205,0.084,0.395,0.168,0.566,0.252
		c0.173,0.084,0.322,0.175,0.448,0.272c0.126,0.099,0.225,0.213,0.294,0.343c0.07,0.131,0.105,0.29,0.105,0.477
		c0,0.354-0.136,0.64-0.406,0.854c-0.271,0.215-0.667,0.322-1.19,0.322c-0.42,0-0.84-0.096-1.26-0.287s-0.793-0.44-1.12-0.749
		l-0.951,1.106c0.438,0.429,0.944,0.761,1.519,0.994c0.574,0.232,1.169,0.35,1.785,0.35c0.513,0,0.973-0.072,1.379-0.217
		s0.751-0.341,1.036-0.588c0.284-0.247,0.501-0.534,0.65-0.861c0.149-0.326,0.225-0.677,0.225-1.05c0-0.336-0.047-0.633-0.141-0.889
		C698.212,153.139,698.083,152.912,697.92,152.716z"/>
	<path class="st0" d="M705.297,152.94c0,0.494-0.047,0.912-0.14,1.253c-0.094,0.341-0.225,0.613-0.393,0.818
		c-0.168,0.206-0.368,0.353-0.602,0.441s-0.49,0.133-0.771,0.133c-0.279,0-0.531-0.044-0.756-0.133
		c-0.224-0.089-0.418-0.235-0.581-0.441c-0.163-0.205-0.289-0.478-0.378-0.818s-0.133-0.759-0.133-1.253v-5.265h-1.624v5.139
		c0,0.756,0.082,1.397,0.245,1.925s0.396,0.959,0.7,1.295c0.303,0.336,0.667,0.581,1.092,0.734c0.425,0.154,0.903,0.231,1.435,0.231
		c0.532,0,1.011-0.077,1.436-0.231c0.425-0.153,0.788-0.398,1.092-0.734s0.534-0.768,0.693-1.295
		c0.158-0.527,0.237-1.169,0.237-1.925v-5.139h-1.554V152.94z"/>
	<path class="st0" d="M714.998,152.086c0.331-0.429,0.497-0.994,0.497-1.694c0-0.513-0.087-0.942-0.26-1.287
		c-0.173-0.346-0.408-0.623-0.707-0.833c-0.299-0.211-0.653-0.362-1.063-0.455c-0.411-0.094-0.854-0.141-1.33-0.141h-3.094v9.156
		h1.624v-3.584h1.399l1.975,3.584h1.819l-2.184-3.822C714.226,152.823,714.666,152.516,714.998,152.086z M711.967,151.96h-1.302
		v-2.981h1.302c0.625,0,1.104,0.103,1.435,0.308s0.497,0.574,0.497,1.105c0,0.523-0.166,0.915-0.497,1.177
		C713.07,151.829,712.592,151.96,711.967,151.96z"/>
	<polygon class="st0" points="718.971,152.758 722.261,152.758 722.261,151.386 718.971,151.386 718.971,149.048 722.863,149.048 
		722.863,147.676 717.347,147.676 717.347,156.832 723.003,156.832 723.003,155.46 718.971,155.46 	"/>
	<path class="st0" d="M578.707,125.836c-2.784,0-5.348,1.428-6.831,3.724c-0.799-0.489-1.72-0.751-2.683-0.751
		c-2.847,0-5.162,2.315-5.162,5.162c0,0.553,0.447,1,1,1h44c0.553,0,1-0.447,1-1c0-2.847-2.315-5.162-5.162-5.162
		c-0.963,0-1.883,0.262-2.683,0.751c-1.483-2.296-4.047-3.724-6.831-3.724c-1.491,0-2.93,0.404-4.185,1.161l-1.197-8.08h0.01
		l2.174,4.34c0.27,0.475,0.763,0.778,1.378,0.812l1.703-0.003c0.399-0.03,0.769-0.198,1.041-0.474
		c0.21-0.212,0.344-0.447,0.408-0.705l2.047-7.839c0.095-0.479-0.029-0.987-0.362-1.398l-4.276-4.786
		c0.13-1.648,0.198-3.09,0.21-4.402c-0.014-6.368-1.74-10.584-6.159-15.035c-0.59-0.596-1.659-0.577-2.258,0.025
		c-3.3,3.325-4.913,6.078-5.645,9.631c-0.759,0.143-1.479,0.496-2.042,1.059c-0.756,0.755-1.172,1.76-1.172,2.828
		s0.416,2.073,1.172,2.828c0.755,0.756,1.76,1.172,2.828,1.172s2.073-0.416,2.828-1.172c0.756-0.755,1.172-1.76,1.172-2.828
		s-0.416-2.073-1.172-2.828c-0.451-0.451-1.007-0.751-1.599-0.933c0.658-2.912,2.045-5.263,4.771-8.065
		c3.827,3.964,5.264,7.618,5.275,13.311c-0.012,1.364-0.09,2.893-0.237,4.673c-0.023,0.273,0.067,0.545,0.25,0.749l4.412,4.936
		l-1.896,7.257l-1.036,0.002l-2.303-4.602c-0.17-0.339-0.516-0.553-0.895-0.553h-7.141c-0.379,0-0.725,0.214-0.895,0.553l-2.303,4.6
		l-1.036,0.001l-1.897-7.255l4.413-4.938c0.367-0.411,0.332-1.044-0.08-1.412c-0.411-0.366-1.042-0.333-1.412,0.08l-4.594,5.144
		c-0.301,0.373-0.425,0.882-0.316,1.419l2.033,7.78c0.173,0.662,0.781,1.147,1.526,1.182h1.626c0.411,0,0.818-0.173,1.114-0.472
		c0.062-0.062,0.19-0.189,0.289-0.388l2.149-4.293h0.009l-1.197,8.08C581.637,126.24,580.199,125.836,578.707,125.836z
		 M582.446,101.557c0.378,0.378,0.586,0.88,0.586,1.414s-0.208,1.036-0.586,1.414c-0.756,0.756-2.072,0.756-2.828,0
		c-0.378-0.378-0.586-0.88-0.586-1.414s0.208-1.036,0.586-1.414s0.88-0.586,1.414-0.586S582.068,101.179,582.446,101.557z
		 M583.957,129.763c0.354-0.122,0.61-0.43,0.665-0.8l1.488-10.046h1.842l1.488,10.046c0.055,0.37,0.312,0.678,0.665,0.8
		c0.353,0.122,0.746,0.034,1.016-0.224c1.148-1.099,2.652-1.703,4.234-1.703c2.422,0,4.622,1.434,5.606,3.651
		c0.135,0.305,0.412,0.521,0.739,0.579c0.328,0.061,0.664-0.051,0.894-0.289c0.604-0.625,1.411-0.969,2.274-0.969
		c1.395,0,2.581,0.907,3,2.162h-41.676c0.419-1.255,1.605-2.162,3-2.162c0.864,0,1.671,0.344,2.273,0.968
		c0.23,0.239,0.566,0.352,0.894,0.29c0.328-0.058,0.605-0.274,0.74-0.579c0.984-2.218,3.185-3.651,5.606-3.651
		c1.582,0,3.086,0.604,4.234,1.703C583.212,129.797,583.605,129.884,583.957,129.763z"/>
</g>
</svg>
